^C:\USERS\BELLCHAN\DOCUMENTS\VISUAL STUDIO 2013\PROJECTS\WIN32PROJECT2\OPENGL_CREATINGWINDOW\SOURCE.CPP
C:\PROGRAM FILES (X86)\MICROSOFT VISUAL STUDIO 12.0\VC\BIN\1033\CLUI.DLL
C:\WINDOWS\GLOBALIZATION\SORTING\SORTDEFAULT.NLS
C:\WINDOWS\SYSTEM32\TZRES.DLL
D:\OPENGL NELZKIE\PRE COMPILED BINARIES\GLEW-1.13.0-WIN32\GLEW-1.13.0\INCLUDE\GL\GLEW.H
